  ___________           .__  .__               
 /   _____/  | _____.__.|  | |__| ____   ____  
 \_____  \|  |/ <   |  ||  | |  |/    \_/ __ \ 
 /        \    < \___  ||  |_|  |   |  \  ___/ 
/_______  /__|_ \/ ____||____/__|___|  /\___  >
        \/     \/\/                  \/     \/
